Mid-Cayman Rise analysis - Protistan grazing analysis
…
`summarise()` has grouped output by 'Experiment_rep', 'Site', 'Name',
'TimePoint', 'EXP_TYPE', 'IGT_REP'. You can override using the `.groups`
argument.

Code

pgC_ml_sizefrac_bysample <- rbind(tmp2, pgC_ml_sizefrac_bysample_tmp)
pgC_ml_sizefrac_bysample

# A tibble: 51 × 9
# Groups:   Experiment_rep, Site, Name, TimePoint, EXP_TYPE, IGT_REP [17]
   Experiment_rep    Site  Name  TimeP…¹ EXP_T…² IGT_REP SAMPL…³ pg_C_ml VARIA…⁴
   <chr>             <chr> <chr> <chr>   <chr>   <chr>   <chr>     <dbl> <chr>  
 1 BSW-Shipboard     VD    BSW   T0      Bag     Shipbo… Vent       239. totale…
 2 LotsOShrimp-Ship… Picc… Lots… T0      Bag     Shipbo… Vent       600. totale…
 3 MustardStand-Shi… VD    Must… T0      Bag     Shipbo… Vent       675. totale…
 4 OMT-IGT4          VD    OMT   T0      IGT     IGT4    Vent     10384. totale…
 5 OMT-IGT4b         VD    OMT   T0      IGT     IGT4b   Vent     20495. totale…
 6 Plume-Shipboard   Picc… Plume T0      Bag     Shipbo… Non-ve…   1469. totale…
 7 Plume-Shipboard   VD    Plume T0      Bag     Shipbo… Non-ve…   3507. totale…
 8 Rav2-IGT4         VD    Rav2  T0      IGT     IGT4    Vent      2456. totale…
 9 Rav2-IGT4b        VD    Rav2  T0      IGT     IGT4b   Vent      6192. totale…
10 Rav2-IGT5         VD    Rav2  T0      IGT     IGT5    Vent     11111. totale…
# … with 41 more rows, and abbreviated variable names ¹​TimePoint, ²​EXP_TYPE,
#   ³​SAMPLE_TYPE_BIN, ⁴​VARIABLE
…
