Mid-Cayman Rise analysis - Protistan grazing analysis
…
`summarise()` has grouped output by 'Experiment_rep', 'Site', 'Name',
'TimePoint', 'EXP_TYPE', 'IGT_REP'. You can override using the `.groups`
argument.

Code

pgC_ml_sizefrac_bysample <- rbind(tmp2, pgC_ml_sizefrac_bysample_tmp)
pgC_ml_sizefrac_bysample

# A tibble: 51 × 9
# Groups:   Experiment_rep, Site, Name, TimePoint, EXP_TYPE, IGT_REP [17]
   Experiment_rep Site  Name  TimePoint EXP_TYPE IGT_REP SAMPLE_TYPE_BIN pg_C_ml
   <chr>          <chr> <chr> <chr>     <chr>    <chr>   <chr>             <dbl>
 1 BSW-Shipboard  VD    BSW   T0        Bag      Shipbo… Vent             1.90e3
 2 LotsOShrimp-S… Picc… Lots… T0        Bag      Shipbo… Vent             4.78e3
 3 MustardStand-… VD    Must… T0        Bag      Shipbo… Vent             5.38e3
 4 OMT-IGT4       VD    OMT   T0        IGT      IGT4    Vent             6.71e6
 5 OMT-IGT4b      VD    OMT   T0        IGT      IGT4b   Vent             1.34e7
 6 Plume-Shipboa… Picc… Plume T0        Bag      Shipbo… Non-vent         8.95e5
 7 Plume-Shipboa… VD    Plume T0        Bag      Shipbo… Non-vent         2.19e6
 8 Rav2-IGT4      VD    Rav2  T0        IGT      IGT4    Vent             1.96e4
 9 Rav2-IGT4b     VD    Rav2  T0        IGT      IGT4b   Vent             3.36e6
10 Rav2-IGT5      VD    Rav2  T0        IGT      IGT5    Vent             6.72e6
# ℹ 41 more rows
# ℹ 1 more variable: VARIABLE <chr>
…
